v -0.758617 1 1.12601
v -0.718259 1 1.11991
l 1 2
v -0.839333 1 1.13821
v -0.758617 1 1.12601
l 3 4
v -0.758617 1 1.12601
v -0.798975 1 1.13211
l 5 6
v 0.851532 1 -1.05749
v 0.845433 1 -1.09785
l 7 8
v 0.845433 1 -1.09785
v 0.839333 1 -1.13821
l 9 10
v 0.845433 1 -1.09785
v 0.758617 1 -1.12601
l 11 12
v 0.798975 1 -1.13211
v 0.845433 1 -1.09785
l 13 14
v 0.758617 1 -1.12601
v 0.718259 1 -1.11991
l 15 16
v 0.845433 1 -1.09785
v 0.758617 1 -1.12601
l 17 18
v 0.758617 1 -1.12601
v 0.798975 1 -1.13211
l 19 20
v 0.839333 1 -1.13821
v 0.798975 1 -1.13211
l 21 22
v 0.798975 1 -1.13211
v 0.845433 1 -1.09785
l 23 24
v 0.758617 1 -1.12601
v 0.798975 1 -1.13211
l 25 26
v -0.845559 1 1.09701
v -0.839333 1 1.13821
l 27 28
v -0.839333 1 1.13821
v -0.839333 -1 1.13821
l 29 30
v -0.839333 1 1.13821
v -0.758617 1 1.12601
l 31 32
v -0.798975 1 1.13211
v -0.839333 1 1.13821
l 33 34
v -0.718259 -1 1.11991
v -0.758617 -1 1.12601
l 35 36
v -0.758617 -1 1.12601
v -0.839333 -1 1.13821
l 37 38
v -0.798975 -1 1.13211
v -0.758617 -1 1.12601
l 39 40
v 0.845433 -1 -1.09785
v 0.851532 -1 -1.05749
l 41 42
v 0.839333 -1 -1.13821
v 0.845433 -1 -1.09785
l 43 44
v 0.758617 -1 -1.12601
v 0.845433 -1 -1.09785
l 45 46
v 0.845433 -1 -1.09785
v 0.798975 -1 -1.13211
l 47 48
v 0.718259 -1 -1.11991
v 0.758617 -1 -1.12601
l 49 50
v 0.758617 -1 -1.12601
v 0.845433 -1 -1.09785
l 51 52
v 0.798975 -1 -1.13211
v 0.758617 -1 -1.12601
l 53 54
v 0.798975 -1 -1.13211
v 0.839333 -1 -1.13821
l 55 56
v 0.845433 -1 -1.09785
v 0.798975 -1 -1.13211
l 57 58
v 0.798975 -1 -1.13211
v 0.758617 -1 -1.12601
l 59 60
v -0.839333 -1 1.13821
v -0.845559 -1 1.09701
l 61 62
v -0.839333 1 1.13821
v -0.839333 -1 1.13821
l 63 64
v -0.758617 -1 1.12601
v -0.839333 -1 1.13821
l 65 66
v -0.839333 -1 1.13821
v -0.798975 -1 1.13211
l 67 68
