solid poly-4 
facet normal 0.0 0.0 -1.0
  outer loop 
  vertex 0.707106781187 0.707106781187 0.5 
  vertex -0.707106781187 0.707106781187 0.5 
  vertex 0.0 0.0 0.5 
  endloop 
endfacet 
facet normal 0.0 0.0 -1.0
  outer loop 
  vertex -0.707106781187 0.707106781187 0.5 
  vertex -0.707106781187 -0.707106781187 0.5 
  vertex 0.0 0.0 0.5 
  endloop 
endfacet 
facet normal 0.0 0.0 -1.0
  outer loop 
  vertex -0.707106781187 -0.707106781187 0.5 
  vertex 0.707106781187 -0.707106781187 0.5 
  vertex 0.0 0.0 0.5 
  endloop 
endfacet 
facet normal 0.0 0.0 -1.0
  outer loop 
  vertex 0.707106781187 -0.707106781187 0.5 
  vertex 0.707106781187 0.707106781187 0.5 
  vertex 0.0 0.0 0.5 
  endloop 
endfacet 
facet normal 0.0 0.0 -1.0
  outer loop 
  vertex 0.707106781187 0.707106781187 -0.5 
  vertex -0.707106781187 0.707106781187 -0.5 
  vertex 0.0 0.0 -0.5 
  endloop 
endfacet 
facet normal 0.0 0.0 -1.0
  outer loop 
  vertex -0.707106781187 0.707106781187 -0.5 
  vertex -0.707106781187 -0.707106781187 -0.5 
  vertex 0.0 0.0 -0.5 
  endloop 
endfacet 
facet normal 0.0 0.0 -1.0
  outer loop 
  vertex -0.707106781187 -0.707106781187 -0.5 
  vertex 0.707106781187 -0.707106781187 -0.5 
  vertex 0.0 0.0 -0.5 
  endloop 
endfacet 
facet normal 0.0 0.0 -1.0
  outer loop 
  vertex 0.707106781187 -0.707106781187 -0.5 
  vertex 0.707106781187 0.707106781187 -0.5 
  vertex 0.0 0.0 -0.5 
  endloop 
endfacet 
facet normal 0.0 0.0 -1.0
  outer loop 
  vertex 0.707106781187 0.707106781187 0.5 
  vertex -0.707106781187 0.707106781187 0.5 
  vertex 0.707106781187 0.707106781187 -0.5 
  endloop 
endfacet 
facet normal 0.0 0.0 -1.0
  outer loop 
  vertex -0.707106781187 0.707106781187 0.5 
  vertex -0.707106781187 -0.707106781187 0.5 
  vertex -0.707106781187 0.707106781187 -0.5 
  endloop 
endfacet 
facet normal 0.0 0.0 -1.0
  outer loop 
  vertex -0.707106781187 -0.707106781187 0.5 
  vertex 0.707106781187 -0.707106781187 0.5 
  vertex -0.707106781187 -0.707106781187 -0.5 
  endloop 
endfacet 
facet normal 0.0 0.0 -1.0
  outer loop 
  vertex 0.707106781187 -0.707106781187 0.5 
  vertex 0.707106781187 0.707106781187 0.5 
  vertex 0.707106781187 -0.707106781187 -0.5 
  endloop 
endfacet 
facet normal 0.0 0.0 -1.0
  outer loop 
  vertex 0.707106781187 0.707106781187 -0.5 
  vertex -0.707106781187 0.707106781187 -0.5 
  vertex -0.707106781187 0.707106781187 0.5 
  endloop 
endfacet 
facet normal 0.0 0.0 -1.0
  outer loop 
  vertex -0.707106781187 0.707106781187 -0.5 
  vertex -0.707106781187 -0.707106781187 -0.5 
  vertex -0.707106781187 -0.707106781187 0.5 
  endloop 
endfacet 
facet normal 0.0 0.0 -1.0
  outer loop 
  vertex -0.707106781187 -0.707106781187 -0.5 
  vertex 0.707106781187 -0.707106781187 -0.5 
  vertex 0.707106781187 -0.707106781187 0.5 
  endloop 
endfacet 
facet normal 0.0 0.0 -1.0
  outer loop 
  vertex 0.707106781187 -0.707106781187 -0.5 
  vertex 0.707106781187 0.707106781187 -0.5 
  vertex 0.707106781187 0.707106781187 0.5 
  endloop 
endfacet 
endsolid poly-4 
