# vtk DataFile Version 2.0
outlet
BINARY
DATASET POLYDATA
POINTS 0 float

POLYGONS 0 0

CELL_DATA 0
FIELD attributes 6
patchID 1 0 float

p 1 0 float

nut 1 0 float

k 1 0 float

omega 1 0 float

U 3 0 float

POINT_DATA  0
FIELD attributes 5
p 1 0 float

nut 1 0 float

k 1 0 float

omega 1 0 float

U 3 0 float

